^C:\USERS\DAVID\DOCUMENTS\GITHUB\DESARROLLO\PRINCIPIOSDECG\CIRCLE\X64\DEBUG\APPLICATION.OBJ|C:\USERS\DAVID\DOCUMENTS\GITHUB\DESARROLLO\PRINCIPIOSDECG\CIRCLE\X64\DEBUG\CIRCLE.OBJ|C:\USERS\DAVID\DOCUMENTS\GITHUB\DESARROLLO\PRINCIPIOSDECG\CIRCLE\X64\DEBUG\PIXEL.OBJ|C:\USERS\DAVID\DOCUMENTS\GITHUB\DESARROLLO\PRINCIPIOSDECG\CIRCLE\X64\DEBUG\PLANE.OBJ|C:\USERS\DAVID\DOCUMENTS\GITHUB\DESARROLLO\PRINCIPIOSDECG\CIRCLE\X64\DEBUG\SHADERFUNCS.OBJ
C:\USERS\DAVID\DOCUMENTS\GITHUB\DESARROLLO\PRINCIPIOSDECG\X64\DEBUG\CIRCLE.ILK
C:\USERS\DAVID\DOCUMENTS\GITHUB\DESARROLLO\PRINCIPIOSDECG\X64\DEBUG\CIRCLE.EXE
C:\USERS\DAVID\DOCUMENTS\GITHUB\DESARROLLO\PRINCIPIOSDECG\X64\DEBUG\CIRCLE.PDB
^C:\USERS\LALO\DESKTOP\DESARROLLO\PRINCIPIOSDECG\CIRCLE\X64\DEBUG\APPLICATION.OBJ|C:\USERS\LALO\DESKTOP\DESARROLLO\PRINCIPIOSDECG\CIRCLE\X64\DEBUG\CIRCLE.OBJ|C:\USERS\LALO\DESKTOP\DESARROLLO\PRINCIPIOSDECG\CIRCLE\X64\DEBUG\PIXEL.OBJ|C:\USERS\LALO\DESKTOP\DESARROLLO\PRINCIPIOSDECG\CIRCLE\X64\DEBUG\PLANE.OBJ|C:\USERS\LALO\DESKTOP\DESARROLLO\PRINCIPIOSDECG\CIRCLE\X64\DEBUG\SHADERFUNCS.OBJ
C:\USERS\LALO\DESKTOP\DESARROLLO\PRINCIPIOSDECG\X64\DEBUG\CIRCLE.ILK
C:\USERS\LALO\DESKTOP\DESARROLLO\PRINCIPIOSDECG\X64\DEBUG\CIRCLE.EXE
C:\USERS\LALO\DESKTOP\DESARROLLO\PRINCIPIOSDECG\X64\DEBUG\CIRCLE.PDB
